<?xml version="1.0" encoding="UTF-8" ?>
<!DOCTYPE svg PUBLIC "-//W3C//DTD SVG 1.1//EN" "http://www.w3.org/Graphics/SVG/1.1/DTD/svg11.dtd">
<svg width="300pt" height="298pt" viewBox="0 0 300 298" version="1.1" xmlns="http://www.w3.org/2000/svg">
<g id="#000000ff">
<path fill="#000000" opacity="1.00" d=" M 156.48 3.71 C 158.78 3.56 161.08 3.35 163.39 3.31 C 162.73 3.98 162.07 4.65 161.41 5.31 C 159.83 5.29 158.25 5.28 156.68 5.31 L 156.48 3.71 Z" />
<path fill="#000000" opacity="1.00" d=" M 150.49 6.91 C 151.78 6.67 153.00 6.21 154.13 5.55 C 155.91 5.79 157.68 6.11 159.45 6.45 C 158.33 7.12 157.21 7.78 156.10 8.45 C 154.22 8.44 152.34 8.52 150.47 8.65 C 150.47 8.22 150.48 7.35 150.49 6.91 Z" />
<path fill="#000000" opacity="1.00" d=" M 135.24 8.93 C 136.47 8.25 137.70 8.23 138.94 8.85 C 138.87 10.13 135.21 10.28 135.24 8.93 Z" />
<path fill="#000000" opacity="1.00" d=" M 150.94 9.90 C 152.98 9.64 155.14 9.68 156.97 8.60 C 160.87 8.14 164.67 8.76 168.38 9.96 C 167.96 10.58 167.12 11.80 166.69 12.42 C 167.45 12.42 168.96 12.43 169.71 12.43 C 169.74 12.73 169.80 13.32 169.83 13.62 C 166.32 13.64 162.82 13.72 159.31 13.58 L 159.55 14.59 C 157.14 14.45 154.72 14.37 152.30 14.59 C 149.24 14.16 146.14 14.51 143.08 14.79 C 140.60 15.66 138.08 16.92 135.38 16.55 C 135.13 16.74 134.62 17.14 134.36 17.34 C 132.14 17.32 129.75 16.88 127.71 18.05 C 126.49 18.28 125.27 18.47 124.05 18.66 C 122.75 19.20 121.44 19.68 120.13 20.18 C 118.44 20.79 116.77 21.46 115.09 22.08 C 114.12 22.43 113.16 22.82 112.22 23.23 C 110.95 23.85 109.67 24.45 108.38 25.03 C 108.41 24.50 108.47 23.45 108.51 22.92 C 109.67 22.65 110.80 22.29 111.92 21.86 C 112.88 21.55 113.84 21.24 114.80 20.92 C 117.64 19.61 120.42 18.12 123.44 17.23 L 123.49 16.77 C 125.32 16.78 127.16 16.60 128.86 15.89 C 130.90 15.78 133.31 15.97 133.91 13.49 L 134.68 13.69 C 133.39 9.45 135.21 13.13 136.19 13.62 C 138.54 15.01 141.18 14.54 143.51 13.41 C 143.40 12.71 143.18 11.29 143.07 10.59 C 143.41 11.14 144.09 12.23 144.44 12.78 C 145.60 12.17 146.77 11.58 147.93 10.98 C 148.95 10.65 149.95 10.29 150.94 9.90 M 149.32 12.20 C 149.77 12.91 149.77 12.91 149.32 12.20 Z" />
<path fill="#000000" opacity="1.00" d=" M 131.58 10.22 C 132.26 9.32 134.83 9.71 133.47 11.03 C 131.91 11.65 129.90 12.30 128.34 11.43 C 128.25 9.98 130.77 10.93 131.58 10.22 Z" />
<path fill="#000000" opacity="1.00" d=" M 128.57 14.07 C 129.49 13.16 131.97 12.64 132.71 13.97 C 131.90 15.12 129.34 15.27 128.57 14.07 Z" />
<path fill="#000000" opacity="1.00" d=" M 147.51 16.65 C 150.68 16.58 154.11 17.38 157.03 15.76 C 158.65 15.73 160.27 15.75 161.90 15.82 C 163.15 16.33 164.45 16.66 165.80 16.81 C 165.83 16.95 165.89 17.21 165.92 17.34 C 163.86 17.64 161.88 18.32 160.08 19.35 C 155.21 19.09 150.36 20.00 145.51 19.53 C 144.95 19.53 143.83 19.54 143.28 19.55 C 142.84 20.76 142.71 22.05 142.43 23.30 C 138.04 22.64 134.23 24.98 130.16 26.12 C 128.30 26.41 126.45 26.84 124.66 27.45 L 124.00 26.57 C 123.46 27.17 122.39 28.36 121.85 28.96 C 121.71 28.44 121.44 27.39 121.30 26.87 C 123.53 26.33 125.72 25.63 127.83 24.75 C 128.94 24.61 130.04 24.46 131.14 24.32 C 132.74 23.61 134.35 22.93 135.90 22.13 C 135.54 22.03 134.81 21.85 134.45 21.75 C 134.39 21.18 134.27 20.05 134.20 19.48 C 135.73 19.59 137.26 19.68 138.79 19.70 C 138.39 20.21 137.59 21.23 137.19 21.74 C 139.07 21.63 142.01 22.36 142.73 19.95 C 141.81 19.26 140.71 18.86 139.44 18.77 C 140.99 18.64 142.47 18.28 143.89 17.70 C 145.12 17.55 146.36 17.43 147.60 17.33 L 147.51 16.65 Z" />
<path fill="#000000" opacity="1.00" d=" M 131.38 20.06 L 132.05 19.62 C 132.21 19.96 132.54 20.64 132.70 20.98 L 132.02 21.42 C 131.86 21.08 131.54 20.40 131.38 20.06 Z" />
<path fill="#000000" opacity="1.00" d=" M 143.28 20.31 C 147.11 20.87 151.03 20.86 154.85 20.22 C 154.75 20.75 154.55 21.80 154.45 22.33 C 150.68 22.18 146.90 22.26 143.14 22.61 L 143.28 20.31 Z" />
<path fill="#000000" opacity="1.00" d=" M 147.06 24.24 C 148.86 23.69 150.73 23.42 152.60 23.23 C 152.63 23.62 152.69 24.40 152.73 24.78 C 152.17 24.68 151.07 24.48 150.52 24.38 L 150.47 25.38 C 147.35 25.41 144.23 25.53 141.17 26.13 C 141.16 26.34 141.14 26.76 141.14 26.97 C 142.46 28.38 144.46 27.50 145.91 26.80 C 151.99 26.21 157.97 27.70 164.04 27.71 C 167.94 27.85 171.59 29.61 175.51 29.69 L 175.45 30.22 C 178.17 30.67 180.80 31.62 183.57 31.78 L 183.50 32.37 C 186.17 32.31 188.61 33.47 191.19 33.95 C 193.82 35.09 196.37 36.47 199.22 36.99 C 199.43 36.36 199.85 35.08 200.06 34.44 C 200.25 35.71 200.35 36.98 200.45 38.26 C 202.56 38.79 204.79 39.04 206.55 37.41 C 206.21 38.05 205.53 39.33 205.18 39.98 C 208.44 41.64 212.06 42.84 214.78 45.35 C 220.00 48.24 225.10 51.32 229.69 55.15 C 230.74 55.76 231.79 56.38 232.87 56.95 C 236.09 60.16 239.33 63.35 242.59 66.52 L 244.68 64.50 L 243.07 67.99 L 245.63 65.50 L 244.28 68.84 L 246.76 67.78 L 245.32 69.51 C 246.71 71.12 248.18 72.70 250.13 73.64 C 252.63 77.32 254.61 81.31 256.87 85.13 C 255.33 80.32 252.26 76.25 249.92 71.83 C 249.61 71.52 248.99 70.88 248.68 70.57 C 245.38 64.44 241.02 58.40 234.93 54.84 C 234.38 54.05 233.84 53.26 233.32 52.46 L 232.61 52.61 C 232.51 51.93 232.33 50.57 232.24 49.89 C 231.81 50.16 230.94 50.72 230.51 50.99 C 230.41 50.25 230.20 48.78 230.10 48.04 C 227.20 45.72 224.20 43.34 220.70 41.99 C 219.70 41.44 218.73 40.86 217.75 40.29 C 215.58 38.98 213.35 37.79 211.18 36.49 C 210.73 36.51 209.84 36.56 209.39 36.58 C 209.43 36.00 209.51 34.83 209.54 34.25 C 209.04 34.32 208.02 34.46 207.52 34.53 L 207.76 33.14 C 209.36 33.29 210.97 33.38 212.57 33.51 L 212.52 34.80 C 212.96 34.73 213.83 34.59 214.27 34.52 C 214.56 35.03 215.14 36.06 215.43 36.57 C 216.08 36.62 217.38 36.73 218.03 36.78 C 219.32 37.70 220.65 38.61 222.21 38.98 C 222.86 38.38 224.14 37.17 224.78 36.57 C 223.46 36.59 222.14 36.58 220.83 36.55 C 220.54 36.01 219.96 34.95 219.66 34.42 C 219.54 33.79 219.30 32.55 219.18 31.92 C 221.14 33.07 223.17 34.09 225.01 35.43 L 225.61 35.34 C 225.79 35.95 226.15 37.18 226.32 37.80 C 226.92 37.31 227.46 36.75 227.93 36.13 C 228.20 36.33 228.73 36.75 229.00 36.96 C 229.63 37.23 230.88 37.75 231.51 38.02 C 231.45 38.77 231.33 40.26 231.27 41.01 C 233.05 42.38 236.61 43.30 236.75 45.68 L 236.16 45.96 C 235.91 46.32 235.43 47.02 235.19 47.38 C 236.33 47.46 237.48 47.49 238.64 47.47 L 239.19 47.24 C 239.45 47.24 239.98 47.24 240.24 47.24 C 241.67 45.31 244.34 46.66 246.29 46.38 L 245.36 47.31 C 245.81 47.60 246.72 48.19 247.17 48.48 C 248.17 48.41 249.18 48.37 250.18 48.35 C 250.27 49.13 250.43 50.70 250.51 51.49 C 254.11 54.94 257.67 58.46 260.87 62.30 C 261.19 62.50 261.85 62.89 262.17 63.08 C 263.85 67.92 267.58 71.56 270.17 75.88 C 270.42 76.37 270.94 77.35 271.19 77.84 C 272.10 79.54 273.05 81.21 274.05 82.86 C 274.70 84.27 275.38 85.67 276.14 87.03 C 277.57 90.76 279.75 94.15 281.12 97.92 C 281.42 98.93 281.74 99.94 282.11 100.94 C 282.40 101.95 282.71 102.95 283.03 103.96 C 283.69 105.61 284.37 107.26 285.13 108.87 C 285.27 109.71 285.41 110.55 285.55 111.39 C 286.64 115.18 287.29 119.07 288.27 122.88 C 288.45 124.28 288.66 125.68 288.89 127.08 C 289.47 128.98 289.72 130.96 290.23 132.87 C 290.29 134.97 289.97 137.22 291.16 139.09 C 291.72 142.71 290.30 146.77 292.25 150.06 C 292.26 155.06 292.57 160.06 292.33 165.06 C 291.35 168.57 291.25 172.22 291.19 175.85 C 290.71 176.91 290.29 177.99 289.93 179.10 C 289.07 182.95 287.39 186.58 286.98 190.53 L 289.14 188.37 C 288.67 189.96 288.87 192.49 286.39 191.71 C 286.36 193.07 286.30 194.43 286.23 195.80 C 285.82 196.27 284.99 197.21 284.58 197.68 L 287.08 197.32 C 286.79 198.55 286.22 201.01 285.93 202.24 C 285.40 201.65 284.34 200.48 283.81 199.89 C 284.26 201.42 285.86 202.80 285.16 204.49 C 284.19 203.36 282.88 203.33 281.70 204.08 L 284.58 204.16 C 284.24 207.40 282.22 210.08 281.19 213.11 C 280.85 214.13 280.53 215.16 280.25 216.21 C 279.06 217.80 277.70 219.25 276.30 220.67 C 276.72 221.33 277.56 222.66 277.98 223.32 L 276.67 223.31 C 275.95 224.97 275.16 226.61 274.27 228.19 C 272.39 230.49 271.32 233.28 269.78 235.79 C 268.17 237.86 266.43 239.85 265.27 242.23 C 263.22 245.11 260.78 247.65 258.25 250.09 C 257.37 251.11 256.43 252.08 255.40 252.95 C 255.37 253.92 255.33 254.89 255.38 255.86 C 253.37 257.27 251.64 259.01 249.96 260.79 C 248.83 261.61 247.74 262.47 246.66 263.34 C 246.00 264.38 245.30 265.40 244.60 266.41 C 243.26 266.34 241.92 266.28 240.58 266.23 C 240.56 266.91 240.51 268.27 240.49 268.95 C 237.98 269.82 236.10 271.76 234.15 273.48 C 233.60 273.45 232.49 273.41 231.94 273.38 C 230.47 274.42 228.72 275.44 229.12 277.59 C 226.63 278.74 222.48 278.63 222.19 282.11 C 221.66 282.37 220.60 282.88 220.06 283.14 C 216.79 282.86 213.90 284.27 211.07 285.70 L 211.70 286.85 C 210.99 286.79 209.56 286.67 208.84 286.61 C 208.04 287.13 207.23 287.65 206.42 288.18 C 205.04 288.05 203.85 288.44 202.85 289.34 C 202.25 289.38 201.05 289.46 200.45 289.50 L 200.56 290.25 C 200.23 290.49 199.57 290.97 199.24 291.20 C 196.13 291.39 193.06 292.04 190.13 293.12 C 188.42 293.37 186.70 293.61 185.00 293.94 C 183.02 294.42 181.03 294.90 179.06 295.44 C 179.22 294.74 179.54 293.35 179.69 292.65 C 187.45 293.35 193.89 287.81 201.47 287.29 C 204.27 285.80 207.11 284.39 209.96 283.00 C 213.82 281.89 217.00 279.27 220.57 277.51 L 221.04 277.06 C 222.35 276.42 223.72 275.91 225.08 275.37 C 223.16 275.49 221.25 275.79 219.33 275.57 L 218.82 275.84 C 216.25 276.79 215.91 280.76 212.67 279.85 C 209.83 281.32 207.00 282.79 204.07 284.07 C 203.56 284.34 202.56 284.89 202.05 285.16 C 198.08 287.40 193.56 288.06 189.37 289.69 L 189.56 287.92 C 191.53 287.73 193.33 286.91 195.12 286.11 C 195.96 285.63 196.80 285.16 197.64 284.68 C 201.58 282.61 206.07 281.16 209.00 277.61 C 209.99 277.43 210.98 277.26 211.97 277.10 C 213.63 276.05 215.22 274.91 216.81 273.77 C 218.11 272.91 219.42 272.06 220.78 271.29 L 220.09 270.61 C 222.29 271.00 223.79 269.56 224.89 267.91 C 227.96 265.76 231.09 263.56 233.48 260.64 C 231.41 261.80 229.58 263.33 227.74 264.82 C 226.75 265.28 225.74 265.70 224.71 266.07 C 226.10 264.17 227.83 262.55 230.07 261.72 L 227.40 260.14 C 229.76 261.91 231.39 260.01 233.00 258.83 C 235.92 256.49 238.35 253.63 241.09 251.10 C 247.19 246.54 251.21 239.94 256.11 234.23 C 256.64 232.86 257.16 231.48 257.66 230.10 C 257.52 230.31 257.25 230.74 257.11 230.95 C 253.15 236.29 249.78 242.09 244.99 246.78 C 241.19 248.32 239.55 252.89 235.32 253.56 C 234.63 253.73 233.95 253.70 233.28 253.47 C 229.43 256.12 225.75 259.01 222.41 262.28 C 221.18 262.89 219.95 263.52 218.74 264.16 C 219.94 265.52 221.86 264.39 223.38 264.41 C 223.30 264.65 223.14 265.13 223.07 265.37 C 220.81 265.66 218.53 267.32 216.43 265.63 C 216.31 266.93 216.19 268.25 215.95 269.54 C 216.78 264.91 213.48 268.27 211.74 268.61 C 210.57 269.48 209.40 270.36 208.27 271.29 C 203.67 273.74 198.97 276.02 194.20 278.14 C 193.69 278.38 192.68 278.86 192.17 279.10 C 189.18 279.98 186.40 281.48 183.34 282.13 C 187.60 279.15 192.65 277.44 197.35 275.23 L 197.48 274.86 C 200.67 273.32 203.73 271.53 206.90 269.96 C 210.14 267.72 213.91 266.03 216.28 262.75 C 214.02 263.97 211.99 265.59 209.66 266.67 C 208.29 267.35 206.90 267.99 205.51 268.62 C 204.75 269.16 203.98 269.71 203.22 270.25 C 202.18 270.86 201.15 271.49 200.13 272.12 C 196.86 272.96 193.81 274.41 190.72 275.73 C 189.87 276.28 189.04 276.85 188.21 277.42 C 186.94 277.57 185.67 277.69 184.40 277.78 C 185.92 276.81 187.52 275.95 189.15 275.19 C 190.43 274.38 191.69 273.56 192.84 272.58 C 190.77 273.17 188.87 274.18 186.97 275.15 C 184.22 275.67 181.69 276.91 179.16 278.05 C 177.21 278.88 175.23 279.66 173.06 279.22 C 173.22 279.57 173.53 280.26 173.69 280.61 C 172.13 280.47 170.58 280.37 169.02 280.37 C 169.19 279.85 169.53 278.80 169.70 278.28 C 170.46 278.83 171.98 279.92 172.73 280.47 L 172.48 278.62 C 173.93 278.08 175.38 277.53 176.87 277.07 C 178.26 276.51 179.62 275.89 180.99 275.29 C 181.53 275.03 182.62 274.52 183.16 274.26 L 181.10 272.98 C 181.83 272.77 183.31 272.36 184.05 272.16 C 186.24 271.18 187.77 269.27 189.65 267.84 C 191.10 267.30 192.51 266.67 193.90 266.00 C 195.53 264.87 197.23 263.83 198.95 262.82 C 205.28 258.83 211.77 254.89 217.18 249.65 C 218.19 249.20 219.19 248.74 220.13 248.17 C 218.00 248.23 216.41 249.75 214.62 250.69 C 209.97 254.95 204.58 258.10 199.04 261.03 C 196.86 261.25 194.80 261.99 192.88 263.02 C 192.45 263.20 191.58 263.56 191.14 263.74 C 188.51 265.13 185.40 264.36 182.54 264.52 C 183.09 264.10 184.19 263.24 184.74 262.81 C 187.97 262.16 190.40 259.75 193.25 258.27 C 195.39 257.18 197.42 255.90 199.28 254.37 C 202.95 250.21 208.39 248.20 212.57 244.64 C 214.78 242.63 217.41 241.10 219.40 238.85 C 215.38 241.37 212.10 244.97 207.70 246.92 C 206.52 247.67 205.35 248.44 204.20 249.24 C 200.84 250.56 198.79 254.22 194.97 254.34 C 193.67 255.32 192.41 256.35 191.18 257.42 L 190.46 257.42 L 190.46 258.65 C 189.91 258.54 188.82 258.32 188.27 258.21 C 188.37 258.77 188.55 259.90 188.65 260.47 C 186.87 260.51 185.06 260.33 183.35 260.91 C 182.56 261.42 180.99 262.45 180.20 262.96 C 179.66 260.69 181.86 260.16 183.38 259.32 C 183.79 258.47 184.21 257.63 184.63 256.79 C 188.25 257.25 190.09 253.39 193.22 252.25 C 197.03 249.26 201.95 247.43 204.76 243.34 C 202.60 244.65 200.78 246.44 198.65 247.78 C 195.95 248.90 193.11 249.66 190.30 250.47 C 189.78 250.79 188.72 251.45 188.20 251.77 C 188.28 252.11 188.46 252.80 188.54 253.14 C 187.92 253.32 186.69 253.69 186.07 253.88 C 183.68 256.62 180.53 258.54 176.91 259.12 C 177.38 258.43 178.31 257.03 178.77 256.34 C 177.92 256.67 176.22 257.35 175.36 257.69 C 175.37 257.28 175.38 256.45 175.39 256.04 C 178.16 255.17 180.62 253.60 183.13 252.18 C 185.97 250.68 188.52 248.73 191.29 247.11 C 192.91 246.04 194.36 244.73 195.89 243.54 L 195.09 242.70 C 198.28 242.73 200.27 239.75 202.49 237.87 C 200.20 238.84 198.28 240.45 196.39 242.01 L 196.44 240.03 C 195.76 240.33 195.09 240.63 194.41 240.93 C 194.46 241.46 194.55 242.52 194.59 243.05 C 192.07 244.82 189.27 246.17 186.92 248.20 C 184.80 248.81 182.59 248.47 180.43 248.46 C 180.35 249.18 180.19 250.63 180.11 251.36 C 179.18 250.21 178.75 248.19 180.59 247.80 C 182.69 246.65 184.80 245.53 186.81 244.23 C 186.72 245.10 186.52 246.85 186.42 247.73 C 187.70 246.32 187.79 244.84 186.67 243.30 C 187.92 244.40 189.28 244.58 190.75 243.85 C 190.44 243.45 189.82 242.65 189.51 242.25 C 192.33 241.22 194.83 239.49 197.02 237.46 C 198.92 240.38 202.29 235.90 204.10 234.48 L 203.75 234.10 L 203.24 234.08 C 202.82 234.62 201.97 235.70 201.54 236.25 C 201.53 234.69 201.55 233.14 201.52 231.59 C 202.63 230.71 203.72 229.81 204.83 228.92 L 204.31 231.57 C 205.34 230.59 206.51 230.13 207.81 230.19 C 208.27 232.06 205.08 232.04 205.21 233.81 C 207.89 232.46 209.82 230.03 211.91 227.94 C 212.89 226.94 213.87 225.94 214.83 224.91 C 215.89 223.61 217.00 222.35 218.14 221.13 C 220.92 217.26 224.43 213.99 226.88 209.88 C 228.98 206.41 231.72 203.05 232.68 199.08 C 234.73 198.14 234.94 195.59 235.99 193.84 C 236.20 193.32 236.62 192.27 236.83 191.75 C 237.64 189.84 238.28 187.85 239.35 186.06 C 239.44 184.87 239.51 183.67 239.56 182.48 L 240.15 182.50 C 240.82 179.34 241.99 176.28 241.90 173.00 C 242.52 171.57 242.76 170.03 242.84 168.49 L 243.74 168.20 L 243.17 166.32 C 242.68 166.95 241.71 168.19 241.23 168.81 C 241.80 164.92 241.71 160.98 241.73 157.06 C 243.87 156.98 243.31 159.23 243.78 160.60 C 244.28 159.12 244.37 157.56 244.36 156.01 C 244.32 149.63 244.57 143.17 243.27 136.88 C 242.92 143.41 244.39 150.00 243.00 156.45 C 242.79 155.44 242.38 153.42 242.17 152.41 L 241.65 152.40 C 241.47 149.50 242.95 145.48 239.33 144.27 C 241.12 149.72 240.57 155.48 240.26 161.10 C 238.77 163.89 240.28 167.08 238.98 169.89 C 238.01 172.43 238.25 175.18 238.43 177.83 L 237.27 177.34 C 237.26 178.05 237.24 179.47 237.24 180.19 C 237.67 179.97 238.53 179.55 238.96 179.34 C 238.93 179.55 238.88 179.99 238.85 180.21 C 235.49 179.95 235.73 184.85 237.54 186.59 C 236.97 186.54 235.81 186.43 235.24 186.37 C 235.32 187.17 235.49 188.76 235.58 189.56 L 234.55 189.26 C 234.13 190.55 233.69 191.85 233.30 193.16 C 232.14 195.42 230.98 197.69 229.86 199.97 C 229.68 200.47 229.34 201.47 229.17 201.97 C 228.17 203.13 227.33 204.42 226.88 205.90 C 226.30 206.63 225.73 207.38 225.17 208.13 C 223.12 211.41 220.57 214.35 218.75 217.78 C 217.30 219.50 216.38 222.60 213.52 221.40 C 213.60 222.27 213.70 223.13 213.82 223.99 C 212.23 225.06 209.67 225.79 210.65 228.28 C 208.92 226.33 207.25 230.24 205.08 229.97 C 206.12 226.72 211.58 226.16 210.80 222.00 C 213.20 221.16 214.37 218.81 215.90 216.97 C 217.55 215.53 218.81 213.73 219.89 211.84 C 220.69 210.69 221.49 209.54 222.30 208.39 C 223.83 205.88 225.23 203.30 226.86 200.86 C 227.09 200.28 227.54 199.12 227.77 198.55 L 228.37 198.53 C 229.20 196.63 229.97 194.72 230.84 192.85 C 232.79 188.79 234.75 184.53 234.77 179.94 C 235.31 178.62 235.68 177.25 236.11 175.89 C 238.25 164.37 238.09 152.56 237.27 140.91 C 236.46 138.32 237.12 135.47 235.84 133.01 C 235.63 131.13 235.54 129.24 235.50 127.35 L 234.66 127.45 C 234.52 126.83 234.24 125.59 234.10 124.97 C 233.95 124.80 233.65 124.45 233.50 124.27 C 234.14 122.57 233.41 120.82 233.09 119.15 C 232.39 117.45 231.68 115.75 230.96 114.06 C 229.52 109.18 227.57 104.47 224.90 100.12 C 224.42 98.71 223.95 97.29 223.48 95.88 C 225.35 96.97 225.95 99.09 226.78 100.93 C 227.52 101.90 228.23 102.90 228.90 103.93 C 229.56 105.80 230.26 107.67 230.74 109.61 L 231.20 109.51 C 231.86 112.11 232.76 114.64 233.96 117.04 C 234.36 118.34 234.70 119.64 235.08 120.94 C 235.21 121.96 235.48 122.93 235.91 123.86 C 236.78 126.90 236.56 130.31 238.24 133.08 C 238.23 133.51 238.21 134.37 238.20 134.79 L 239.87 134.45 C 240.10 137.54 238.49 140.42 238.90 143.48 C 239.67 143.44 241.21 143.35 241.98 143.30 C 241.71 141.24 241.20 139.24 240.45 137.30 C 241.02 137.30 242.16 137.31 242.73 137.31 C 243.28 131.69 241.88 126.20 240.09 120.92 C 239.39 118.30 238.79 115.65 237.78 113.13 C 236.81 110.76 235.93 108.34 234.93 105.98 C 234.60 104.74 234.30 103.50 233.91 102.28 C 233.23 100.90 232.56 99.51 231.93 98.10 C 231.17 97.11 230.40 96.13 229.61 95.16 C 229.49 93.78 229.36 92.39 229.23 91.01 C 228.78 91.23 227.87 91.68 227.41 91.91 C 228.16 89.42 225.98 87.84 224.71 86.06 C 222.63 83.07 220.23 80.31 218.16 77.30 C 217.86 77.36 217.27 77.49 216.98 77.55 C 215.25 74.99 213.14 72.70 210.79 70.69 C 211.82 72.56 213.00 74.34 213.88 76.30 C 211.77 74.68 209.99 72.71 208.32 70.66 C 206.87 69.39 205.46 68.05 203.79 67.07 C 201.03 65.48 198.82 62.84 195.63 62.11 L 195.59 61.84 C 192.95 60.90 190.37 59.77 187.75 58.77 L 188.73 60.52 C 186.90 60.37 185.06 60.30 183.23 60.22 C 184.32 59.49 185.41 58.77 186.51 58.04 C 183.14 57.09 179.43 56.96 176.41 55.09 C 176.39 55.69 176.35 56.90 176.32 57.51 C 175.86 57.50 174.94 57.48 174.47 57.48 C 174.59 56.96 174.82 55.94 174.93 55.42 C 173.59 55.37 172.25 55.30 170.92 55.22 C 168.39 53.73 165.36 54.66 162.62 54.06 C 161.30 53.66 160.01 53.93 158.78 54.47 C 155.08 52.93 151.13 54.46 147.38 55.02 C 143.92 55.64 140.33 55.78 137.06 57.21 C 135.97 57.40 134.88 57.57 133.79 57.73 C 132.97 58.18 132.14 58.63 131.32 59.07 C 129.54 59.59 127.84 60.31 126.20 61.15 C 120.94 62.90 116.03 65.49 111.22 68.23 C 109.64 69.16 107.98 70.01 106.06 69.71 C 106.16 70.06 106.35 70.76 106.44 71.11 C 104.81 71.43 103.41 72.29 102.20 73.40 C 101.78 73.55 100.92 73.85 100.50 74.00 C 100.07 73.77 99.21 73.33 98.78 73.10 C 98.71 73.85 98.57 75.35 98.50 76.10 C 96.65 77.31 94.83 78.58 93.10 79.96 C 92.83 80.46 92.31 81.47 92.04 81.98 C 90.84 82.38 89.79 83.04 88.84 83.87 C 87.77 85.19 86.69 86.50 85.51 87.73 C 84.87 88.38 84.21 89.03 83.55 89.67 C 83.00 90.70 82.47 91.74 81.96 92.80 C 81.30 92.69 79.97 92.48 79.31 92.37 C 79.28 92.76 79.23 93.53 79.20 93.92 C 77.92 96.41 77.10 99.10 76.23 101.75 C 75.76 101.59 74.80 101.28 74.32 101.13 C 74.30 101.85 74.25 103.29 74.22 104.01 C 73.84 105.00 73.48 106.00 73.14 107.00 C 71.64 108.20 71.36 110.03 71.14 111.82 C 70.49 112.95 70.14 114.17 70.10 115.48 C 69.74 115.43 69.02 115.31 68.65 115.25 C 68.16 116.92 67.62 118.58 67.26 120.28 C 66.57 123.21 65.48 126.01 64.41 128.82 C 63.97 128.75 63.09 128.60 62.65 128.52 C 62.64 125.87 62.67 123.22 62.87 120.57 C 63.09 121.64 63.53 123.78 63.75 124.85 L 64.43 124.72 C 65.35 121.51 65.66 118.19 65.71 114.86 C 66.55 113.21 67.34 111.54 68.26 109.94 C 68.63 106.63 70.30 103.72 71.65 100.74 C 75.95 93.85 80.90 87.38 86.34 81.36 C 89.28 78.96 91.93 76.24 94.82 73.79 C 96.79 72.43 98.80 71.13 100.84 69.89 C 101.86 69.22 102.87 68.52 103.87 67.81 C 106.14 66.30 108.36 64.71 110.72 63.32 C 109.65 65.21 107.90 66.53 106.45 68.10 C 109.94 66.06 113.54 64.21 116.90 61.94 C 119.45 60.84 122.31 60.00 124.15 57.78 C 124.66 57.67 125.67 57.47 126.17 57.36 C 130.64 53.80 136.36 51.94 141.93 50.77 C 144.44 50.19 147.07 50.27 149.54 49.48 C 145.01 49.24 140.59 49.55 136.29 50.99 L 136.78 51.18 C 134.83 51.35 132.65 53.17 130.83 51.70 C 130.68 52.24 130.38 53.32 130.23 53.86 C 129.51 53.77 128.06 53.59 127.34 53.50 L 127.41 54.37 C 125.78 54.33 124.16 54.30 122.54 54.29 C 121.68 54.88 120.83 55.48 119.97 56.07 C 118.85 56.53 117.73 56.97 116.60 57.39 C 117.24 56.45 117.91 55.52 118.60 54.61 C 120.01 54.10 121.42 53.57 122.90 53.23 C 122.71 52.78 122.35 51.88 122.17 51.43 L 123.60 51.65 C 123.57 51.36 123.52 50.76 123.49 50.47 C 123.99 50.14 124.99 49.47 125.49 49.13 C 124.12 49.33 122.74 49.51 121.37 49.68 L 121.37 50.74 C 120.87 50.61 119.86 50.34 119.36 50.21 L 119.50 51.13 C 118.31 51.43 117.15 51.83 116.03 52.31 C 115.05 52.47 114.07 52.60 113.08 52.71 C 111.39 53.93 109.69 55.14 108.16 56.57 C 107.11 56.58 106.06 56.58 105.01 56.57 C 107.71 54.60 110.74 53.06 113.11 50.68 C 113.66 50.67 114.75 50.64 115.30 50.63 C 115.61 50.12 116.25 49.10 116.57 48.59 C 118.34 47.96 120.12 47.36 121.88 46.70 C 125.28 46.41 128.36 44.77 131.30 43.16 C 128.28 43.18 125.74 44.91 123.07 46.07 L 123.78 44.45 C 123.19 44.41 122.01 44.35 121.41 44.32 C 121.57 43.37 121.75 42.44 121.96 41.51 C 120.48 42.80 118.62 42.29 117.85 40.59 C 112.50 41.81 107.30 44.33 102.93 47.83 C 104.78 47.08 106.55 46.15 108.25 45.12 C 108.74 44.93 109.72 44.55 110.22 44.36 C 111.78 43.09 113.58 42.18 115.50 41.57 C 116.33 42.01 117.16 42.47 117.98 42.94 C 115.53 43.67 113.23 44.81 111.10 46.23 C 108.09 47.85 105.04 49.43 102.06 51.12 C 101.55 51.36 100.54 51.83 100.04 52.07 C 98.72 52.74 97.41 53.43 96.09 54.09 C 92.28 56.52 88.91 59.60 86.37 63.35 C 81.48 68.66 75.97 73.42 71.56 79.17 C 70.50 80.60 69.07 81.69 67.75 82.88 C 67.69 83.36 67.57 84.33 67.51 84.81 C 67.22 84.81 66.65 84.80 66.36 84.80 C 66.60 85.90 67.37 87.32 66.18 88.21 C 64.52 90.52 62.45 92.61 61.53 95.37 C 64.66 91.61 67.43 87.57 70.32 83.63 C 70.81 80.22 73.62 77.97 75.69 75.47 C 79.63 70.66 84.68 66.92 88.70 62.18 C 88.63 63.24 88.49 65.34 88.41 66.39 C 89.54 64.61 90.27 62.62 91.10 60.70 C 92.66 62.52 90.89 64.60 90.38 66.49 C 88.67 68.41 86.87 70.24 85.06 72.07 C 85.53 71.92 86.46 71.61 86.93 71.46 C 87.98 69.14 90.40 68.25 92.50 67.15 C 92.48 67.84 92.44 69.24 92.42 69.93 C 89.67 71.95 86.74 74.46 87.18 78.25 C 83.51 77.13 81.15 80.36 81.39 83.73 C 80.60 83.50 79.81 83.28 79.03 83.06 C 79.21 84.12 79.41 85.18 79.60 86.24 C 78.97 86.03 77.71 85.62 77.08 85.41 C 77.17 86.18 77.36 87.72 77.45 88.49 C 77.01 88.42 76.15 88.28 75.72 88.21 C 75.56 90.53 74.32 92.50 73.21 94.47 L 72.79 94.56 C 71.59 96.77 70.09 98.80 68.91 101.02 C 68.73 101.67 68.37 102.96 68.20 103.61 C 67.78 103.59 66.94 103.54 66.52 103.52 C 66.45 102.85 66.32 101.53 66.25 100.86 C 64.09 103.87 63.84 107.69 62.23 110.95 C 61.79 111.15 60.91 111.53 60.48 111.73 C 60.46 112.53 60.41 114.14 60.39 114.94 C 59.68 114.46 58.24 113.50 57.53 113.02 C 58.35 114.10 59.28 115.10 60.20 116.10 C 59.75 116.40 58.85 117.01 58.40 117.31 C 58.78 118.28 58.83 119.32 58.45 120.32 C 58.53 120.62 58.67 121.23 58.74 121.53 C 55.49 120.68 57.00 125.42 56.31 127.34 C 55.37 127.64 54.46 128.01 53.58 128.46 L 56.42 128.34 C 54.30 131.27 56.28 134.37 57.68 137.07 L 58.86 135.71 C 57.69 140.67 58.78 145.72 58.51 150.73 C 59.10 150.62 60.30 150.41 60.90 150.31 C 60.90 150.62 60.88 151.24 60.88 151.55 C 60.07 151.44 59.25 151.34 58.44 151.24 C 58.49 152.17 58.59 154.05 58.63 154.99 C 59.53 157.60 59.18 160.41 59.69 163.11 C 60.23 164.08 60.81 165.04 61.42 165.97 C 61.66 167.90 61.70 169.83 61.82 171.77 C 61.38 171.26 60.49 170.26 60.05 169.75 L 60.50 171.93 L 58.96 171.64 C 59.21 170.30 59.72 167.63 59.97 166.29 C 58.48 167.97 57.61 170.53 59.07 172.48 C 59.32 173.32 59.58 174.17 59.84 175.01 C 60.27 175.97 60.70 176.92 61.15 177.87 C 61.84 180.07 62.90 182.14 64.31 183.97 C 64.34 184.26 64.42 184.83 64.46 185.11 C 66.83 187.55 68.16 192.01 71.82 192.54 C 71.73 193.31 71.55 194.87 71.46 195.65 C 71.80 195.93 72.47 196.49 72.80 196.77 C 73.30 198.33 71.08 198.48 70.22 198.97 C 68.43 197.27 66.88 195.35 65.10 193.65 C 66.81 196.37 68.87 198.84 70.88 201.34 C 72.12 201.44 73.29 201.81 74.39 202.37 C 74.40 203.33 74.36 204.30 74.49 205.25 C 76.83 205.32 77.10 208.06 78.98 208.91 C 82.24 210.74 85.35 212.94 87.39 216.14 C 86.22 215.75 85.08 215.32 83.95 214.82 C 81.81 213.51 79.58 212.32 77.11 211.74 C 76.04 211.52 74.97 211.31 73.91 211.10 C 73.64 210.84 73.12 210.34 72.86 210.08 C 71.70 208.92 70.48 207.81 69.12 206.89 C 67.94 205.33 66.82 203.74 65.83 202.07 C 64.81 200.79 63.76 199.54 62.76 198.25 C 61.84 196.81 60.91 195.38 59.94 193.98 C 59.82 192.87 57.82 193.45 58.50 194.42 C 59.53 195.93 60.88 197.16 62.08 198.53 C 61.33 198.46 59.81 198.34 59.05 198.28 C 61.60 201.32 63.54 204.85 66.47 207.56 C 67.30 208.25 67.68 209.16 67.61 210.29 C 63.61 207.37 60.81 203.29 58.07 199.25 C 57.45 199.38 56.21 199.63 55.59 199.76 C 55.07 198.85 54.04 197.02 53.52 196.11 C 54.42 196.19 56.22 196.34 57.11 196.42 C 55.93 195.12 55.11 193.08 53.03 193.14 C 52.75 190.93 51.91 188.87 50.75 186.98 C 51.40 190.97 53.21 194.67 53.68 198.70 L 54.23 198.34 C 54.20 199.86 54.94 200.51 56.46 200.30 C 56.54 202.68 57.65 204.81 58.34 207.05 C 58.69 205.99 59.40 203.87 59.75 202.82 C 61.01 206.74 63.06 210.36 65.18 213.87 C 65.67 214.78 66.16 215.69 66.64 216.62 C 68.62 218.57 70.57 220.55 72.56 222.50 C 72.53 221.80 72.47 220.39 72.44 219.69 L 73.36 219.65 C 74.17 219.17 74.96 218.67 75.75 218.18 C 73.66 217.48 72.17 215.80 70.82 214.15 C 73.17 214.92 75.17 216.41 77.22 217.74 C 77.41 218.41 77.79 219.76 77.99 220.44 L 75.33 218.63 C 75.47 219.44 75.75 221.05 75.89 221.86 C 75.14 221.48 73.66 220.70 72.91 220.31 C 73.95 222.08 75.03 223.86 75.84 225.75 C 76.47 225.31 77.10 224.88 77.74 224.45 C 78.94 225.29 80.37 225.65 81.78 226.01 C 83.09 227.14 84.60 227.99 86.12 228.81 C 88.63 230.42 91.14 232.23 94.11 232.91 C 93.28 232.37 91.64 231.30 90.81 230.76 C 91.81 230.33 92.77 229.82 93.81 229.50 C 95.63 230.28 97.20 231.55 98.85 232.66 C 101.91 232.10 104.86 233.12 107.38 234.85 C 106.78 233.59 106.18 232.33 105.57 231.07 C 106.18 231.30 107.40 231.76 108.01 231.98 C 109.93 232.99 111.79 234.10 113.61 235.28 C 113.54 234.61 113.38 233.27 113.31 232.60 C 114.59 234.04 116.24 234.97 118.23 234.84 C 119.19 235.17 120.14 235.49 121.10 235.80 C 127.61 240.38 133.47 246.20 136.33 253.78 C 136.79 253.57 137.71 253.17 138.17 252.96 C 138.40 257.12 139.92 261.23 138.21 265.28 C 136.92 268.98 134.10 271.73 132.04 274.96 C 131.82 275.46 131.38 276.45 131.15 276.94 C 128.93 278.39 126.88 280.08 124.75 281.66 C 122.41 282.70 119.85 283.12 117.41 283.85 C 117.03 283.68 116.29 283.35 115.92 283.18 C 114.01 283.23 112.13 283.56 110.42 284.45 L 110.50 285.29 C 105.66 285.47 100.82 285.62 95.98 285.41 C 92.82 283.98 89.54 282.84 86.42 281.33 L 86.61 280.77 C 82.45 278.58 78.84 275.54 74.80 273.18 C 70.87 270.06 66.15 267.91 62.95 263.96 C 61.72 262.28 60.60 260.47 58.88 259.27 C 46.25 248.56 33.60 237.43 24.83 223.21 C 23.02 220.65 21.17 218.08 19.95 215.18 C 17.70 211.40 16.29 207.08 13.69 203.56 C 15.75 202.19 16.65 204.80 17.84 206.00 C 17.18 204.10 16.43 202.24 15.71 200.37 C 15.35 201.04 14.86 201.55 14.24 201.90 C 13.93 200.76 11.39 199.26 13.14 198.35 C 14.03 198.39 14.92 198.34 15.80 198.21 C 14.32 197.31 12.54 197.45 10.90 197.24 C 10.72 195.56 10.55 193.86 10.05 192.23 C 9.17 190.22 8.55 188.11 7.81 186.05 C 7.62 184.69 7.43 183.33 7.22 181.99 C 6.06 177.40 5.86 172.62 5.13 167.95 C 4.25 160.50 5.02 152.94 4.68 145.44 L 6.37 145.63 C 6.72 149.82 5.57 154.56 8.27 158.18 C 8.06 154.21 9.40 149.56 7.99 145.96 C 7.63 145.81 6.90 145.52 6.54 145.37 L 6.85 144.70 C 3.17 144.84 5.71 140.73 5.46 138.76 L 6.32 138.16 C 6.89 139.97 4.96 144.42 8.03 144.28 C 8.22 144.09 8.59 143.70 8.78 143.51 C 10.87 139.84 7.89 141.52 6.64 141.50 C 7.46 140.22 8.30 138.96 9.08 137.67 C 8.24 137.65 6.55 137.62 5.71 137.60 C 5.68 137.04 5.61 135.92 5.58 135.36 L 7.11 135.42 C 6.61 138.51 8.54 136.02 9.49 135.67 C 9.58 134.22 9.68 132.79 9.78 131.35 C 9.49 131.96 8.91 133.17 8.62 133.78 C 8.08 133.73 7.00 133.64 6.47 133.59 L 6.40 131.21 L 7.42 131.70 C 7.41 129.93 7.49 128.17 7.57 126.40 C 7.96 126.42 8.74 126.47 9.12 126.49 C 9.36 127.79 9.84 130.39 10.08 131.69 C 10.26 130.44 10.64 127.92 10.82 126.66 C 12.52 123.27 13.65 119.65 13.82 115.85 C 14.35 114.45 14.65 112.98 14.86 111.50 C 17.55 112.22 16.39 109.81 16.40 108.26 C 16.83 106.84 17.44 105.48 17.94 104.09 C 18.56 102.33 19.25 100.60 19.97 98.88 C 20.91 96.11 21.92 93.37 22.88 90.60 L 23.18 90.37 C 24.07 88.04 25.54 85.87 25.74 83.32 C 26.69 82.55 27.65 81.79 28.61 81.04 C 27.87 83.96 26.71 86.73 25.80 89.59 C 28.37 85.49 30.92 81.11 31.91 76.31 C 32.37 76.30 33.27 76.29 33.72 76.28 C 33.71 76.59 33.68 77.20 33.66 77.51 L 32.55 77.33 C 32.46 78.02 32.27 79.39 32.17 80.08 C 31.40 81.63 31.31 83.36 31.18 85.05 C 30.51 86.54 29.84 88.02 29.23 89.53 L 28.93 89.60 C 28.46 90.80 27.95 91.99 27.41 93.16 C 27.71 94.50 27.99 95.84 28.24 97.18 L 29.18 94.32 C 29.71 95.59 30.86 97.24 29.60 98.49 C 28.93 99.08 28.27 99.68 27.61 100.29 C 27.93 101.67 28.77 102.91 29.23 104.27 C 29.25 102.84 29.48 101.46 29.89 100.10 C 30.60 99.45 31.31 98.79 32.03 98.15 C 30.52 97.23 30.46 95.50 30.01 93.99 C 30.64 92.04 31.35 90.12 31.89 88.14 L 33.51 88.35 C 33.10 89.86 32.70 91.37 32.32 92.89 C 33.68 91.94 34.93 90.86 36.03 89.63 C 36.48 89.60 37.38 89.55 37.83 89.52 C 37.50 90.31 37.18 91.10 36.84 91.88 C 35.72 95.29 34.27 98.58 32.95 101.91 C 32.03 103.85 31.25 105.87 31.05 108.03 C 30.80 108.56 30.30 109.62 30.04 110.15 C 29.18 112.38 28.40 114.64 27.83 116.96 C 27.30 119.99 26.73 123.04 26.58 126.12 C 27.39 124.08 28.03 121.98 28.63 119.88 C 29.15 118.61 29.67 117.34 30.22 116.09 C 31.12 109.90 34.56 104.48 35.86 98.46 L 37.41 98.77 C 37.26 99.54 36.97 101.09 36.82 101.87 C 37.69 100.37 38.54 98.85 39.35 97.33 C 39.52 99.42 39.98 101.75 38.71 103.62 C 36.98 106.87 36.43 110.60 36.22 114.24 C 37.32 110.43 38.01 106.49 40.06 103.03 C 40.48 103.22 41.30 103.60 41.72 103.79 L 40.28 100.10 L 42.41 102.27 C 43.05 100.41 44.01 98.69 45.34 97.25 C 45.49 96.56 45.77 95.19 45.91 94.51 C 44.80 96.12 44.40 98.41 42.26 99.08 C 43.05 96.06 45.39 93.70 45.93 90.61 L 47.87 90.21 C 47.69 91.05 47.34 92.74 47.16 93.59 C 48.77 90.75 50.36 87.91 51.96 85.07 C 53.25 83.15 54.68 81.29 56.64 80.01 C 56.64 79.41 56.63 78.22 56.62 77.62 C 57.69 77.44 58.77 77.30 59.86 77.20 C 59.19 79.05 57.81 80.53 56.63 82.07 C 57.22 81.92 58.39 81.60 58.97 81.45 C 59.67 78.40 63.55 77.21 63.05 73.75 C 62.68 74.38 61.93 75.64 61.55 76.28 C 60.95 76.32 59.76 76.40 59.16 76.45 C 60.91 75.14 62.02 73.51 61.36 71.33 C 64.82 72.41 65.54 68.17 67.45 66.26 L 67.45 65.44 L 68.73 65.63 L 68.56 64.20 L 70.76 64.25 L 70.32 66.00 L 70.61 65.81 C 71.61 64.26 73.16 62.97 73.51 61.08 L 74.90 62.07 L 73.39 59.06 L 76.44 61.39 L 74.31 58.02 L 76.99 59.82 L 75.82 57.20 L 78.11 59.04 C 78.38 57.80 78.61 56.56 78.80 55.31 C 79.17 55.47 79.92 55.81 80.29 55.97 C 80.54 54.66 81.27 53.67 82.48 53.01 C 82.46 52.66 82.43 51.95 82.41 51.60 C 83.26 51.56 84.98 51.49 85.83 51.45 C 85.67 51.01 85.35 50.13 85.19 49.69 C 85.88 49.64 87.25 49.53 87.94 49.48 L 86.74 51.28 C 88.10 50.84 89.48 50.41 90.80 49.83 C 95.89 46.65 101.57 44.61 107.10 42.36 C 108.22 41.91 109.35 41.51 110.49 41.14 L 110.62 40.85 C 112.40 40.26 114.15 39.57 115.89 38.85 C 118.98 37.46 123.65 37.26 124.43 33.23 C 122.70 33.99 121.94 33.50 122.14 31.77 C 122.79 31.66 124.08 31.46 124.73 31.35 C 124.67 31.80 124.53 32.69 124.47 33.13 C 127.20 33.09 129.62 30.66 132.34 31.73 C 131.11 31.19 129.89 30.64 128.70 30.02 C 130.97 29.52 133.23 28.90 135.48 28.31 C 135.47 28.57 135.45 29.08 135.43 29.34 C 136.59 28.72 137.80 28.25 138.98 27.69 C 139.19 27.13 139.60 26.01 139.81 25.44 C 140.18 25.51 140.93 25.65 141.30 25.71 L 141.35 24.58 C 143.25 24.45 145.15 24.32 147.06 24.24 M 152.85 34.88 C 156.87 35.51 160.96 35.52 165.02 35.65 C 166.29 36.20 167.62 36.56 168.95 36.96 C 171.10 39.60 174.88 39.35 177.94 39.57 C 181.68 39.37 185.06 41.17 188.64 41.94 C 192.21 42.93 195.64 44.75 199.43 44.54 C 199.38 44.95 199.28 45.76 199.23 46.17 C 201.21 46.35 202.73 47.63 204.30 48.71 C 205.45 49.61 206.63 50.46 207.79 51.34 C 208.46 51.40 209.81 51.53 210.48 51.59 L 210.45 52.33 C 213.79 54.81 217.79 56.33 220.92 59.07 C 222.90 60.44 224.77 61.95 226.78 63.27 C 225.21 61.28 223.47 59.43 221.68 57.65 C 219.05 56.04 216.79 53.94 214.42 51.99 C 213.56 51.38 212.70 50.77 211.83 50.17 C 209.73 48.56 207.50 47.11 205.07 46.05 C 203.67 45.30 202.25 44.58 200.75 44.06 C 200.44 43.93 199.80 43.69 199.48 43.57 C 195.37 44.75 191.64 41.34 187.79 40.29 C 186.91 39.77 185.97 39.35 184.99 39.04 C 183.96 38.63 182.93 38.22 181.90 37.82 C 177.17 37.06 172.53 35.90 167.90 34.69 C 162.89 34.52 157.84 34.42 152.85 34.88 M 227.10 39.86 C 226.41 39.19 225.01 37.85 224.31 37.18 C 223.87 39.57 224.59 41.48 227.03 42.10 C 229.35 42.99 231.60 44.22 234.02 44.80 C 233.89 42.64 230.97 42.38 229.49 41.36 C 229.51 39.98 229.44 38.59 229.35 37.22 C 228.56 38.06 227.81 38.95 227.10 39.86 M 124.08 43.15 C 124.49 43.94 124.49 43.94 124.08 43.15 M 63.61 75.73 C 65.70 73.61 67.25 71.08 68.80 68.57 C 66.75 70.55 62.68 72.34 63.61 75.73 M 101.25 71.19 C 101.83 71.88 101.83 71.88 101.25 71.19 M 52.66 87.79 C 52.45 88.31 52.04 89.35 51.83 89.87 C 51.59 90.37 51.12 91.36 50.88 91.86 C 49.75 93.14 48.56 94.39 47.83 95.95 C 46.87 98.47 45.58 100.95 45.52 103.70 C 45.10 103.79 44.25 103.97 43.83 104.06 L 46.05 104.33 C 44.81 107.53 43.52 110.76 43.07 114.18 C 43.81 112.97 44.52 111.74 45.24 110.52 C 45.43 107.78 46.16 105.12 46.59 102.41 L 47.33 102.63 C 47.84 101.72 48.35 100.81 48.87 99.92 C 50.44 97.60 51.21 94.90 52.30 92.37 C 53.61 90.62 55.03 88.85 54.81 86.50 C 55.20 86.17 55.98 85.52 56.37 85.19 C 56.77 84.35 57.58 82.66 57.98 81.82 C 55.52 83.09 54.38 85.76 52.66 87.79 M 75.18 99.26 C 75.88 99.80 75.88 99.80 75.18 99.26 M 53.54 132.36 C 52.96 133.73 52.93 135.40 53.35 136.83 C 53.54 138.17 55.34 137.71 54.80 136.44 C 54.12 135.35 55.17 132.30 53.54 132.36 M 56.26 159.00 C 57.29 162.08 57.33 165.33 57.72 168.52 C 58.09 167.38 59.07 166.28 58.67 165.01 C 57.59 160.94 57.41 156.71 55.82 152.76 C 55.69 154.85 55.33 157.04 56.26 159.00 M 242.89 165.83 C 244.36 165.72 244.11 163.25 243.60 162.30 C 242.38 162.60 242.09 164.92 242.89 165.83 M 179.99 257.46 C 180.48 257.05 181.46 256.22 181.95 255.81 C 181.63 253.80 177.51 256.96 179.99 257.46 M 194.36 272.09 C 195.60 272.73 196.36 272.37 196.64 271.00 C 195.40 270.36 194.64 270.73 194.36 272.09 Z" />
<path fill="#000000" opacity="1.00" d=" M 131.40 27.05 C 134.22 25.38 131.55 30.58 131.40 27.05 Z" />
<path fill="#000000" opacity="1.00" d=" M 88.23 32.91 C 91.17 32.06 93.35 29.38 96.72 30.28 C 94.13 31.85 91.37 33.10 88.80 34.71 C 87.66 35.56 86.48 36.37 85.25 37.10 C 83.40 37.72 81.85 38.92 80.33 40.10 C 75.08 42.45 72.82 48.07 68.04 51.06 C 63.35 54.98 59.43 59.69 55.29 64.16 C 54.32 65.76 52.72 66.57 51.06 67.27 L 50.69 67.44 C 50.47 68.03 50.04 69.20 49.82 69.78 C 49.08 71.31 48.05 72.67 47.03 74.01 C 46.15 75.86 44.90 77.47 43.49 78.94 C 43.47 80.17 43.47 81.41 43.47 82.64 C 42.89 82.56 41.73 82.40 41.15 82.32 C 42.16 79.69 43.40 77.14 44.66 74.62 C 46.16 72.73 47.63 70.81 49.30 69.06 C 49.36 68.39 49.50 67.05 49.57 66.38 L 50.39 66.76 C 50.82 65.74 51.26 64.73 51.70 63.72 C 53.13 62.11 54.58 60.52 55.87 58.80 C 57.71 57.36 59.47 55.82 61.20 54.25 C 62.98 51.99 65.08 50.03 67.03 47.93 C 69.38 46.71 71.16 44.82 72.65 42.68 C 75.33 40.45 78.68 39.25 81.66 37.50 C 82.02 37.16 82.72 36.47 83.08 36.12 C 84.89 35.21 86.72 34.28 88.23 32.91 Z" />
<path fill="#000000" opacity="1.00" d=" M 210.94 31.07 C 211.72 28.40 215.27 32.35 212.14 32.40 C 211.84 32.07 211.24 31.40 210.94 31.07 Z" />
<path fill="#000000" opacity="1.00" d=" M 214.75 31.75 C 215.82 30.96 218.22 32.03 217.64 33.47 C 216.59 34.07 213.97 33.25 214.75 31.75 Z" />
<path fill="#000000" opacity="1.00" d=" M 223.21 32.26 C 223.87 32.77 223.87 32.77 223.21 32.26 Z" />
<path fill="#000000" opacity="1.00" d=" M 232.06 37.45 C 236.12 36.46 236.67 42.34 240.60 41.89 C 240.51 42.54 240.32 43.84 240.23 44.49 C 241.29 44.66 243.41 44.99 244.47 45.16 C 242.47 45.35 240.46 45.39 238.46 45.55 C 236.99 43.65 235.16 42.08 233.20 40.72 C 233.42 40.11 235.44 39.61 234.09 39.03 C 233.58 38.64 232.57 37.85 232.06 37.45 Z" />
<path fill="#000000" opacity="1.00" d=" M 60.49 42.71 C 61.59 41.91 62.53 40.92 63.47 39.93 C 63.08 41.16 62.72 42.39 62.39 43.64 L 61.11 42.75 C 61.20 43.56 61.38 45.19 61.47 46.01 C 60.11 46.80 58.83 47.72 57.57 48.65 C 57.22 53.09 54.05 56.17 50.63 58.60 C 50.65 57.60 50.70 55.62 50.72 54.63 C 49.35 55.84 48.05 57.14 46.62 58.29 C 48.48 55.10 50.32 51.65 53.25 49.30 C 53.81 49.35 54.93 49.45 55.49 49.50 C 56.49 48.18 57.78 46.93 57.68 45.13 C 57.62 43.34 59.84 45.12 60.65 44.91 C 60.61 44.36 60.53 43.26 60.49 42.71 Z" />
<path fill="#000000" opacity="1.00" d=" M 80.77 46.77 C 82.94 47.01 82.72 44.82 83.12 43.34 C 83.20 44.11 83.36 45.67 83.44 46.44 C 84.24 45.82 85.84 44.59 86.64 43.97 C 85.01 46.58 82.07 47.86 79.99 50.04 C 78.72 50.33 77.57 50.88 76.91 52.07 C 75.87 53.08 74.82 54.08 73.85 55.16 C 73.41 55.40 72.55 55.88 72.12 56.12 C 73.61 52.00 77.74 49.69 80.77 46.77 Z" />
<path fill="#000000" opacity="1.00" d=" M 201.15 45.25 C 201.84 45.80 201.84 45.80 201.15 45.25 Z" />
<path fill="#000000" opacity="1.00" d=" M 94.48 57.32 C 95.74 57.33 97.01 57.37 98.27 57.42 C 97.07 58.69 95.85 59.93 94.66 61.20 C 94.57 59.91 94.51 58.61 94.48 57.32 Z" />
<path fill="#000000" opacity="1.00" d=" M 103.04 57.41 C 106.57 57.48 101.47 60.31 103.04 57.41 Z" />
<path fill="#000000" opacity="1.00" d=" M 112.48 58.39 C 113.84 57.55 115.23 56.77 116.66 56.04 C 116.35 56.87 115.75 58.54 115.44 59.37 C 113.98 59.22 112.68 59.95 111.40 60.54 L 111.45 61.15 C 109.80 61.52 107.95 61.71 106.79 63.09 C 105.26 64.00 103.71 64.87 102.19 65.80 C 101.71 63.56 103.27 63.13 105.20 63.23 C 105.34 62.51 105.62 61.08 105.76 60.36 C 107.39 62.92 110.59 61.09 109.66 58.43 C 110.37 58.42 111.78 58.40 112.48 58.39 Z" />
<path fill="#000000" opacity="1.00" d=" M 66.54 58.83 C 67.31 58.43 68.86 57.63 69.63 57.23 C 67.15 61.33 63.30 64.31 60.37 68.05 C 60.48 68.50 60.71 69.40 60.82 69.84 C 60.38 69.65 59.49 69.26 59.04 69.07 C 58.51 69.87 57.97 70.67 57.42 71.46 C 57.43 70.70 57.46 69.20 57.47 68.44 L 58.93 68.74 C 58.88 68.34 58.78 67.54 58.73 67.14 C 60.78 65.68 62.31 63.66 63.83 61.69 C 64.87 61.25 65.90 60.82 66.94 60.39 C 66.84 60.00 66.64 59.22 66.54 58.83 Z" />
<path fill="#000000" opacity="1.00" d=" M 48.31 60.12 L 48.97 59.66 C 49.13 60.00 49.46 60.68 49.62 61.02 L 48.96 61.47 C 48.80 61.14 48.47 60.46 48.31 60.12 Z" />
<path fill="#000000" opacity="1.00" d=" M 70.72 62.30 C 72.65 60.44 72.44 65.00 70.63 63.17 L 70.72 62.30 Z" />
<path fill="#000000" opacity="1.00" d=" M 129.24 66.05 C 131.64 65.26 134.13 63.75 136.72 64.63 C 135.22 65.13 133.68 65.50 132.22 66.09 C 130.93 66.89 129.01 68.97 129.24 66.05 Z" />
<path fill="#000000" opacity="1.00" d=" M 98.40 66.30 C 98.64 65.90 99.11 65.10 99.34 64.70 C 99.38 65.95 99.41 67.19 99.45 68.44 C 98.69 68.48 97.17 68.56 96.41 68.60 C 97.06 67.82 97.72 67.05 98.40 66.30 Z" />
<path fill="#000000" opacity="1.00" d=" M 274.13 72.19 C 276.70 71.52 274.51 75.22 273.68 72.86 L 274.13 72.19 Z" />
<path fill="#000000" opacity="1.00" d=" M 53.02 75.23 C 53.66 75.95 53.66 75.95 53.02 75.23 Z" />
<path fill="#000000" opacity="1.00" d=" M 50.11 79.66 C 50.46 78.58 50.86 77.51 51.30 76.45 C 51.38 77.15 51.56 78.54 51.64 79.24 C 50.02 80.80 47.79 82.16 48.13 84.79 L 46.43 83.19 C 43.36 87.10 41.45 91.74 39.16 96.11 C 38.78 96.76 38.01 98.06 37.63 98.70 L 36.46 98.19 C 37.79 95.89 38.82 93.44 40.18 91.16 C 41.27 88.97 42.54 86.87 43.78 84.76 C 44.63 83.46 45.44 82.13 46.19 80.77 C 46.61 81.10 47.43 81.76 47.85 82.09 C 48.06 81.44 48.49 80.13 48.71 79.48 C 49.06 79.52 49.76 79.61 50.11 79.66 Z" />
<path fill="#000000" opacity="1.00" d=" M 218.17 87.16 C 218.81 87.85 218.81 87.85 218.17 87.16 Z" />
<path fill="#000000" opacity="1.00" d=" M 219.38 91.45 C 217.89 90.90 218.70 88.32 220.17 89.54 C 221.26 90.19 220.84 92.69 219.38 91.45 Z" />
<path fill="#000000" opacity="1.00" d=" M 286.00 104.36 C 289.53 104.45 284.45 107.24 286.00 104.36 Z" />
<path fill="#000000" opacity="1.00" d=" M 63.60 110.24 C 63.33 109.00 65.28 105.01 66.32 106.96 C 65.92 108.15 65.49 109.33 65.03 110.49 C 64.67 110.43 63.96 110.31 63.60 110.24 Z" />
<path fill="#000000" opacity="1.00" d=" M 287.32 109.60 C 289.25 110.57 289.56 112.53 289.55 114.54 C 289.05 114.56 288.05 114.62 287.55 114.64 C 287.47 112.96 287.36 111.28 287.32 109.60 Z" />
<path fill="#000000" opacity="1.00" d=" M 288.91 119.30 C 288.57 118.24 287.83 116.13 289.24 115.59 C 290.98 115.90 290.79 120.63 288.91 119.30 Z" />
<path fill="#000000" opacity="1.00" d=" M 288.46 120.59 C 290.18 121.01 291.46 120.42 292.28 118.81 C 292.40 121.22 292.30 123.70 293.04 126.03 C 293.31 127.61 293.53 129.21 293.77 130.80 C 293.43 130.81 292.76 130.83 292.42 130.84 C 292.51 129.17 292.66 127.46 291.99 125.88 C 291.85 125.11 291.56 123.57 291.42 122.80 L 289.96 124.97 C 289.77 123.40 289.27 121.94 288.46 120.59 Z" />
<path fill="#000000" opacity="1.00" d=" M 241.14 136.28 C 240.45 135.04 239.86 132.48 241.15 131.53 C 242.40 132.49 242.69 135.58 241.14 136.28 Z" />
<path fill="#000000" opacity="1.00" d=" M 293.65 153.21 C 295.14 154.01 294.61 157.40 294.04 158.91 C 292.63 157.87 293.25 154.83 293.65 153.21 Z" />
<path fill="#000000" opacity="1.00" d=" M 293.07 166.51 C 294.12 167.18 294.07 169.38 293.05 170.06 C 291.91 169.42 291.98 167.17 293.07 166.51 Z" />
<path fill="#000000" opacity="1.00" d=" M 292.64 170.70 C 294.18 171.19 293.27 174.26 292.94 175.57 C 291.58 174.82 292.04 171.99 292.64 170.70 Z" />
<path fill="#000000" opacity="1.00" d=" M 60.39 172.83 C 61.05 173.55 61.05 173.55 60.39 172.83 Z" />
<path fill="#000000" opacity="1.00" d=" M 62.93 173.45 C 65.47 172.60 63.67 176.39 62.56 174.15 L 62.93 173.45 Z" />
<path fill="#000000" opacity="1.00" d=" M 61.21 175.21 C 61.84 175.86 61.84 175.86 61.21 175.21 Z" />
<path fill="#000000" opacity="1.00" d=" M 62.91 176.29 C 63.69 176.78 63.69 176.78 62.91 176.29 Z" />
<path fill="#000000" opacity="1.00" d=" M 68.58 188.14 C 67.94 186.97 69.62 187.07 69.87 187.91 C 70.60 189.07 72.04 190.10 71.87 191.62 C 70.08 192.33 69.31 189.33 68.58 188.14 Z" />
<path fill="#000000" opacity="1.00" d=" M 289.14 187.26 C 289.80 187.88 289.80 187.88 289.14 187.26 Z" />
<path fill="#000000" opacity="1.00" d=" M 73.76 194.63 C 72.55 195.78 71.11 192.69 72.77 192.51 C 73.02 193.04 73.51 194.10 73.76 194.63 Z" />
<path fill="#000000" opacity="1.00" d=" M 287.22 193.15 C 287.75 193.83 287.75 193.83 287.22 193.15 Z" />
<path fill="#000000" opacity="1.00" d=" M 76.13 200.30 C 76.34 199.42 76.77 197.67 76.98 196.79 C 77.13 197.49 77.42 198.89 77.57 199.58 L 78.53 199.53 C 78.53 200.07 78.54 201.15 78.54 201.69 L 76.93 201.14 L 76.51 202.04 C 77.84 202.49 78.86 203.32 79.56 204.55 L 79.72 203.52 C 81.06 205.40 82.63 207.18 83.28 209.46 C 79.67 206.18 75.60 202.75 73.14 198.70 L 73.80 198.63 C 74.38 199.04 75.55 199.88 76.13 200.30 Z" />
<path fill="#000000" opacity="1.00" d=" M 79.63 202.25 C 80.14 202.45 81.18 202.85 81.70 203.05 C 81.20 203.17 80.21 203.40 79.72 203.52 C 79.69 203.20 79.65 202.57 79.63 202.25 Z" />
<path fill="#000000" opacity="1.00" d=" M 83.47 217.03 C 85.61 218.25 90.57 220.16 87.66 223.07 C 87.65 222.26 87.63 220.64 87.63 219.82 C 86.19 219.63 84.75 219.44 83.32 219.25 C 83.36 218.70 83.43 217.59 83.47 217.03 Z" />
<path fill="#000000" opacity="1.00" d=" M 98.17 225.26 C 98.86 225.73 98.86 225.73 98.17 225.26 Z" />
<path fill="#000000" opacity="1.00" d=" M 88.43 227.39 C 89.62 227.36 90.60 227.86 91.37 228.88 C 91.24 229.90 90.64 230.31 89.58 230.12 C 88.46 229.43 88.08 228.52 88.43 227.39 Z" />
<path fill="#000000" opacity="1.00" d=" M 104.21 230.25 C 104.87 230.88 104.87 230.88 104.21 230.25 Z" />
<path fill="#000000" opacity="1.00" d=" M 176.48 251.50 C 177.01 251.42 178.07 251.27 178.60 251.20 C 178.55 251.77 178.45 252.92 178.40 253.50 L 177.35 253.31 L 177.42 254.13 C 174.81 254.91 172.42 256.26 169.91 257.31 C 169.51 257.02 168.71 256.44 168.31 256.15 C 169.51 255.78 170.70 255.41 171.90 255.03 C 173.45 254.39 175.00 253.74 176.58 253.15 C 176.56 252.74 176.50 251.91 176.48 251.50 Z" />
<path fill="#000000" opacity="1.00" d=" M 226.38 259.68 C 228.76 257.84 230.79 254.49 234.12 254.55 C 237.07 254.51 232.27 257.02 231.92 258.10 C 230.17 258.93 228.51 260.37 226.38 259.68 Z" />
<path fill="#000000" opacity="1.00" d=" M 164.55 259.06 C 165.08 257.99 166.53 257.09 167.71 257.49 C 167.53 257.92 167.17 258.77 167.00 259.19 C 165.92 260.04 165.11 260.00 164.55 259.06 Z" />
<path fill="#000000" opacity="1.00" d=" M 226.24 260.32 C 227.57 260.97 226.13 263.96 224.76 263.31 C 223.72 262.21 224.99 260.47 226.24 260.32 Z" />
<path fill="#000000" opacity="1.00" d=" M 174.23 266.45 C 175.07 269.28 173.09 271.80 170.25 272.18 C 167.63 273.06 165.02 273.99 162.35 274.70 L 162.36 275.92 C 161.34 275.52 160.32 275.13 159.33 274.68 L 161.54 274.51 L 161.60 273.80 C 163.53 273.06 165.42 272.22 167.34 271.44 C 168.10 270.82 168.87 270.21 169.64 269.61 C 172.25 270.44 173.58 268.85 174.23 266.45 Z" />
<path fill="#000000" opacity="1.00" d=" M 155.33 277.20 C 154.32 275.82 156.68 274.59 157.68 275.58 C 158.68 276.96 156.35 278.26 155.33 277.20 Z" />
<path fill="#000000" opacity="1.00" d=" M 164.46 281.84 C 164.60 280.41 165.26 280.13 166.43 281.00 C 166.27 282.45 165.61 282.73 164.46 281.84 Z" />
<path fill="#000000" opacity="1.00" d=" M 179.70 284.18 C 179.28 282.56 179.88 282.04 181.51 282.63 C 181.89 284.27 181.29 284.79 179.70 284.18 Z" />
<path fill="#000000" opacity="1.00" d=" M 173.18 285.85 C 175.40 285.43 177.36 284.12 179.67 284.14 C 177.80 285.60 175.44 286.13 173.26 286.93 C 173.24 286.66 173.20 286.12 173.18 285.85 Z" />
<path fill="#000000" opacity="1.00" d=" M 178.89 291.44 C 181.61 290.29 185.40 290.87 187.21 288.13 C 187.44 288.61 187.91 289.57 188.15 290.05 C 187.08 290.48 186.03 290.95 185.00 291.45 C 182.96 291.54 180.92 291.54 178.89 291.44 Z" />
<path fill="#000000" opacity="1.00" d=" M 177.06 294.15 C 180.54 294.24 175.48 297.06 177.06 294.15 Z" />
</g>
</svg>
